questionNo,question,option1,option2,option3,option4,rightAnswer,explanation,type,difficultyLevel,providedBy
1,In which of the following classes are male gametes non-flagellated?,Chlorophyceae,Phaeophyceae,Rhodophyceae,Bacillariophyceae,Rhodophyceae,,free,hard,Krishna
2,"Chondrus, Gelidium and Porphyra belong to:",Red algae,Brown algae,Green and red algae,"Brown, red and green algae",Red algae,,premium,medium,Sashi Devkota
3,Kelps are:,Marine algae,Fresh water algae,Amphibious plants,Terrestrial plants,Marine algae,,free,easy,